hw02_gapminder-dplyr
…
Exercise 1.3

Filter gapminder to all entries that have experienced a drop in life expectancy. Be sure to include a new variable thats the increase in life expectancy in your tibble. Hint: you might find the lag() or diff() functions useful.

Exercise 1.4

Filter gapminder so that it shows the max GDP per capita experienced by each country. Hint: you might find the max() function useful here.

gapminder %>%
    group_by(country) %>% 
    summarize(maxGDP = max(gdpPercap))

## # A tibble: 142 x 2
##    country     maxGDP
##    <fct>        <dbl>
##  1 Afghanistan   978.
##  2 Albania      5937.
##  3 Algeria      6223.
##  4 Angola       5523.
##  5 Argentina   12779.
##  6 Australia   34435.
##  7 Austria     36126.
##  8 Bahrain     29796.
##  9 Bangladesh   1391.
## 10 Belgium     33693.
## #  with 132 more rows
…
